…
    ## 1952 1957 1962 1967 1972 1977 1982 1987 1992 1997 2002 2007 
    ##  142  142  142  142  142  142  142  142  142  142  142  142

## Explore individual variables

### Categorical variable

We can have a look at the countries categorical variable. We can select
the countries column from `gapminder` using `select`:

``` r
select(gapminder,country)
```

    ## # A tibble: 1,704 x 1
    ##    country    
    ##    <fct>      
    ##  1 Afghanistan
    ##  2 Afghanistan
    ##  3 Afghanistan
    ##  4 Afghanistan
    ##  5 Afghanistan
    ##  6 Afghanistan
    ##  7 Afghanistan
    ##  8 Afghanistan
    ##  9 Afghanistan
    ## 10 Afghanistan
    ## # ... with 1,694 more rows

This has a lot of replicates due to multiple years’ worth of data. We
can remove the duplicates using the `unique` function in `R`:

``` r
unique(select(gapminder,country))
```

    ## # A tibble: 142 x 1
    ##    country    
    ##    <fct>      
    ##  1 Afghanistan
    ##  2 Albania    
    ##  3 Algeria    
    ##  4 Angola     
    ##  5 Argentina  
    ##  6 Australia  
    ##  7 Austria    
    ##  8 Bahrain    
    ##  9 Bangladesh 
    ## 10 Belgium    
    ## # ... with 132 more rows
…
